PCAD Importer Log
Project : RES VAR 10K R16K1.PrjPcb

Section : C:\a1\MasterKit\Projects\BM4511\RES VAR 10K R16K1.pcb
    Section : Load Messages
        Warning - 1 : Skipping Token defaultPinDes On Line 3226
        Warning - 1 : Skipping Token defaultPinDes On Line 3227
        Warning - 1 : Skipping Token defaultPinDes On Line 3228
        Warning - 1 : Skipping Token refPointSize On Line 3322
        Warning - 1 : Skipping Token infoPointSize On Line 3323
        Warning - 1 : Skipping Token gluePointSize On Line 3324
        Warning - 1 : Skipping Token pickPointSize On Line 3325
        Warning - 1 : Skipping Token testPointSize On Line 3326
        Warning - 1 : Skipping Token refPointSizePrint On Line 3327
        Warning - 1 : Skipping Token infoPointSizePrint On Line 3328
        Warning - 1 : Skipping Token gluePointSizePrint On Line 3329
        Warning - 1 : Skipping Token pickPointSizePrint On Line 3330
        Warning - 1 : Skipping Token testPointSizePrint On Line 3331
        Warning - 1 : Skipping Token solderFlowDirection On Line 3332
        Warning - 1 : Skipping Token globalCopperPourCutoutBackoffFlag On Line 3333
        Warning - 1 : Skipping Token printDrawOrder On Line 3430
        Warning - 1 : Skipping Token printDrawOrder On Line 3783
        Warning - 1 : Skipping Token printDrawOrder On Line 4137
        Warning - 1 : Skipping Token drillSymSettings On Line 4477
        Warning - 1 : Skipping Token gerberSettings On Line 4479
        Warning - 1 : Skipping Token ncDrillSettings On Line 4493
        Warning - 1 : Skipping Token programState On Line 4502
        Warning - 1 : Skipping Token displayDrawOrder On Line 4543
        Warning - 1 : Skipping Token reportSettings On Line 4766
        Warning - 1 : Skipping Token odbSettings On Line 5169
    EndSection

    Section : Import Messages
    EndSection
EndSection
