Netlist Changes:


======================================================================

COMPSWAP.LOG:
Net changes on pin designator 2 of symbol U1 on sheet Sheet1.
Net changes on pin designator 3 of symbol U1 on sheet Sheet1.























































----------------------------------------------------------------------

11-Mar-15  21:36                                            Page    1

