P-CAD Online DRC Error Log                                    BM4511.pcb

======================================================================

OnlineDRC.ERR.txt:

NETLIST VIOLATIONS:


0 warning(s) detected.
0 error(s) detected.

CLEARANCE VIOLATIONS:


0 warning(s) detected.
0 error(s) detected.

WIDTH VIOLATIONS:


0 warning(s) detected.
0 error(s) detected.







































----------------------------------------------------------------------

26-Jan-15  21:44                                            Page    1

